{  
    "//":"Data origin:",
    "///":"https://www.thm.de/semesterplan-dev/?option=com_thm_organizer&view=schedule_ajax&format=raw&task=getSubjectLessons&subjectIDs=125",
    "////":"subjectIDs=125 -> Diskrete Mathematik (MN1007)",

    "Diskrete Mathematik (MN1007) - VRL - 35537": {
    "id": "35537",
    "comment": "",
    "subjectID": "125",
    "method": "VRL",
    "subjectName": "Diskrete Mathematik (MN1007)"
    },
    "Diskrete Mathematik (MN1007) - \u00dcBG - 35479": {
    "id": "35479",
    "comment": "",
    "subjectID": "125",
    "method": "ÜBG",
    "subjectName": "Diskrete Mathematik (MN1007)"
    },
    "Diskrete Mathematik (MN1007) - \u00dcBG - 35531": {
    "id": "35531",
    "comment": "",
    "subjectID": "125",
    "method": "ÜBG",
    "subjectName": "Diskrete Mathematik (MN1007)"
    },
    "Diskrete Mathematik (MN1007) - \u00dcBG - 35555": {
    "id": "35555",
    "comment": "",
    "subjectID": "125",
    "method": "ÜBG",
    "subjectName": "Diskrete Mathematik (MN1007)"
    },
    "Diskrete Mathematik (MN1007) - \u00dcBG - 38226": {
    "id": "38226",
    "comment": "",
    "subjectID": "125",
    "method": "ÜBG",
    "subjectName": "Diskrete Mathematik (MN1007)"
    }
    }