{
    "Wissenschaftliches Arbeiten in der Informatik (SK1007) - PR\u00dc - 36743": {
        "id": "36743",
        "comment": "1. Kurs Schumann",
        "subjectID": "363",
        "method": "PR\u00dc",
        "subjectName": "Wissenschaftliches Arbeiten in der Informatik (SK1007)"
    },
    "Wissenschaftliches Arbeiten in der Informatik (SK1007) - PR\u00dc - 36744": {
        "id": "36744",
        "comment": "2. Kurs Schumann",
        "subjectID": "363",
        "method": "PR\u00dc",
        "subjectName": "Wissenschaftliches Arbeiten in der Informatik (SK1007)"
    },
    "Wissenschaftliches Arbeiten in der Informatik (SK1007) - SMU - 35586": {
        "id": "35586",
        "comment": "Kurs Schumann (1. Kurs)",
        "subjectID": "363",
        "method": "SMU",
        "subjectName": "Wissenschaftliches Arbeiten in der Informatik (SK1007)"
    },
    "Wissenschaftliches Arbeiten in der Informatik (SK1007) - SMU - 35587": {
        "id": "35587",
        "comment": "Kurs Schumann (2. Kurs)",
        "subjectID": "363",
        "method": "SMU",
        "subjectName": "Wissenschaftliches Arbeiten in der Informatik (SK1007)"
    },
    "Wissenschaftliches Arbeiten in der Informatik (SK1007) - SMU - 35588": {
        "id": "35588",
        "comment": "Kurs Roth",
        "subjectID": "363",
        "method": "SMU",
        "subjectName": "Wissenschaftliches Arbeiten in der Informatik (SK1007)"
    },
    "Wissenschaftliches Arbeiten in der Informatik (SK1007) - SMU - 35589": {
        "id": "35589",
        "comment": "Kurs Renz",
        "subjectID": "363",
        "method": "SMU",
        "subjectName": "Wissenschaftliches Arbeiten in der Informatik (SK1007)"
    },
    "Wissenschaftliches Arbeiten in der Informatik (SK1007) - SMU - 35590": {
        "id": "35590",
        "comment": "Kurs Vaupel",
        "subjectID": "363",
        "method": "SMU",
        "subjectName": "Wissenschaftliches Arbeiten in der Informatik (SK1007)"
    },
    "Wissenschaftliches Arbeiten in der Informatik (SK1007) - SMU - 36326": {
        "id": "36326",
        "comment": "Kurs Roth",
        "subjectID": "363",
        "method": "SMU",
        "subjectName": "Wissenschaftliches Arbeiten in der Informatik (SK1007)"
    },
    "Wissenschaftliches Arbeiten in der Informatik (SK1007) - SMU - 37763": {
        "id": "37763",
        "comment": "",
        "subjectID": "363",
        "method": "SMU",
        "subjectName": "Wissenschaftliches Arbeiten in der Informatik (SK1007)"
    },
    "Wissenschaftliches Arbeiten in der Informatik (SK1007) - SMU - 38289": {
        "id": "38289",
        "comment": "10.00 - 16.00 Uhr",
        "subjectID": "363",
        "method": "SMU",
        "subjectName": "Wissenschaftliches Arbeiten in der Informatik (SK1007)"
    },
    "Wissenschaftliches Arbeiten in der Informatik (SK1007) - SMU - 38402": {
        "id": "38402",
        "comment": "",
        "subjectID": "363",
        "method": "SMU",
        "subjectName": "Wissenschaftliches Arbeiten in der Informatik (SK1007)"
    }
}